…
# Value to analyse
set.seed(100)
X = seq(1, length(Date))/1e4 + runif(length(Date), -100, 100)
X[as.Date("2000-03-01") <= Date & Date <= as.Date("2000-09-30")] = NA

# Creation of tibble
data = tibble(Date=Date, ID="serie A", X=X)
```

Which looks like that :
``` r
> data
# A tibble: 17,898 × 3
   Date       ID           X
   <date>     <chr>    <dbl>
 1 1972-01-01 serie A -38.4 
 2 1972-01-02 serie A -48.5 
 3 1972-01-03 serie A  10.5 
 4 1972-01-04 serie A -88.7 
 5 1972-01-05 serie A  -6.29
 6 1972-01-06 serie A  -3.25
 7 1972-01-07 serie A  62.5 
 8 1972-01-08 serie A -25.9 
 9 1972-01-09 serie A   9.31
10 1972-01-10 serie A -65.9 
# ℹ 17,888 more rows
# ℹ Use `print(n = ...)` to see more rows
```
…
will perform a yearly extraction of the maximum value between may and november, from the 1th march of 1990 to the 31th october of 2020, ignoring `NA` values.

The output is also a `tibble` with a column of **date**, of **character** for the name of time series and a **numerical** column with the extracted variable from the time series.

``` r
> dataEX
# A tibble: 31 × 3
   ID      Date           X
   <chr>   <date>     <dbl>
 1 serie A 1990-05-01 100. 
 2 serie A 1991-05-01 101. 
 3 serie A 1992-05-01 100. 
 4 serie A 1993-05-01  99.9
 5 serie A 1994-05-01  99.0
 6 serie A 1995-05-01 100. 
 7 serie A 1996-05-01 100. 
 8 serie A 1997-05-01 101. 
 9 serie A 1998-05-01  99.6
10 serie A 1999-05-01 101. 
# ℹ 21 more rows
# ℹ Use `print(n = ...)` to see more rows
```
…
